"{\"results\":[{\"popularity\":459.869,\"vote_count\":228,\"video\":false,\"poster_path\":\"\\/8S2AFd8DF539pxdn7TCIDqXlwRA.jpg\",\"id\":330457,\"adult\":false,\"backdrop_path\":\"\\/xJWPZIYOEFIjZpBL7SVBGnzRYXp.jpg\",\"original_language\":\"en\",\"original_title\":\"Frozen II\",\"genre_ids\":[12,16,35,10402,10751],\"title\":\"겨울왕국 2\",\"vote_average\":6.9,\"overview\":\"어느 날 부턴가 의문의 목소리가 엘사를 부르고, 평화로운 아렌델 왕국을 위협한다. 트롤은 모든 것은 과거에서 시작되었음을 알려주며 엘사의 힘의 비밀과 진실을 찾아 떠나야한다고 조언한다. 위험에 빠진 아렌델 왕국을 구해야만 하는 엘사와 안나는 숨겨진 과거의 진실을 찾아 크리스토프, 올라프 그리고 스벤과 함께 위험천만한 놀라운 모험을 떠나게 된다. 자신의 힘을 두려워했던 엘사는 이제 이 모험을 헤쳐나가기에 자신의 힘이 충분하다고 믿어야만 하는데…\",\"release_date\":\"2019-11-20\"},{\"popularity\":269.734,\"id\":475557,\"video\":false,\"vote_count\":5916,\"vote_average\":8.4,\"title\":\"조커\",\"release_date\":\"2019-10-02\",\"original_language\":\"en\",\"original_title\":\"Joker\",\"genre_ids\":[80,53,18],\"backdrop_path\":\"\\/n6bUvigpRFqSwmPp1m2YADdbRBc.jpg\",\"adult\":false,\"overview\":\"홀어머니와 사는 아서 플렉(호아킨 피닉스)은 코미디언을 꿈꾸지만 그의 삶은 좌절과 절망으로 가득 차 있다. 광대 아르바이트는 그에게 모욕을 가져다주기 일쑤고, 긴장하면 웃음을 통제할 수 없는 신경병 증세는 그를 더욱 고립시킨다. 정부 예산 긴축으로 인해 정신과 약물을 지원하던 공공의료 서비스마저 없어져 버린 어느 날, 아서는 지하철에서 시비를 걸어온 증권사 직원들에게 얻어맞던 와중에 동료가 건네준 권총으로 그들을 쏴 버리고 만다. 군중들은 지배계급에 대한 저항의 아이콘이 된 그를 추종하기 시작하며 광대 마스크로 얼굴을 가리고 거리로 쏟아져 나오기 시작하는데...\",\"poster_path\":\"\\/wrCwH6WOvXQvVuqcKNUrLDCDxdw.jpg\"},{\"popularity\":200.244,\"vote_count\":669,\"video\":false,\"poster_path\":\"\\/nIoDNiWWOtCFdJRi89aFI98cdj0.jpg\",\"id\":290859,\"adult\":false,\"backdrop_path\":\"\\/riTANvQ8GKmQbgtC1ps3OfkU43A.jpg\",\"original_language\":\"en\",\"original_title\":\"Terminator: Dark Fate\",\"genre_ids\":[28,878],\"title\":\"터미네이터: 다크 페이트\",\"vote_average\":6.3,\"overview\":\"심판의 날 그 후, 뒤바뀐 미래. 새로운 인류의 희망 ‘대니’를 지키기 위해 슈퍼 솔져 ‘그레이스’가 미래에서 찾아오고, ‘대니’를 제거하기 위한 터미네이터 ‘Rev-9’의 추격이 시작된다.  최첨단 기술력으로 무장한 최강의 적 터미네이터 ‘Rev-9’의 무차별적인 공격에 쫓기기 시작하던 ‘그레이스’와 ‘대니’ 앞에 터미네이터 헌터 ‘사라 코너’가 나타나 도움을 준다. 인류의 수호자이자 기계로 강화된 슈퍼 솔져 ‘그레이스’와 ‘사라 코너’는 ‘대니’를 지키기 위해 새로운 조력자를 찾아 나서고, 터미네이터 ‘Rev-9’은 그들의 뒤를 끈질기게 추격하는데...\",\"release_date\":\"2019-10-23\"},{\"popularity\":182.175,\"id\":474350,\"video\":false,\"vote_count\":2126,\"vote_average\":6.8,\"title\":\"그것: 두 번째 이야기\",\"release_date\":\"2019-09-04\",\"original_language\":\"en\",\"original_title\":\"It Chapter Two\",\"genre_ids\":[27,18],\"backdrop_path\":\"\\/8moTOzunF7p40oR5XhlDvJckOSW.jpg\",\"adult\":false,\"overview\":\"27년마다 아이들이 사라지는 마을 데리, 또 다시 ‘그것’이 나타났다. 27년 전, 가장 무서워하는 것의 모습으로 나타나 아이들을 잡아먹는 그것 페니와이즈에 맞섰던 ‘루저 클럽’ 친구들은 어른이 되어도 더 커져만 가는 그것의 공포를 끝내기 위해 피할 수 없는 마지막 대결에 나선다.\",\"poster_path\":\"\\/kkkS7NYPY4QZcZY6vfkAx0vjJRa.jpg\"},{\"popularity\":151.286,\"vote_count\":91,\"video\":false,\"poster_path\":\"\\/suPfemWGPk8xOePePITOhg1C5EP.jpg\",\"id\":568012,\"adult\":false,\"backdrop_path\":\"\\/iGnCzXEx0cFlUbpyAMeHwHWhPhx.jpg\",\"original_language\":\"ja\",\"original_title\":\"ワンピーススタンピード\",\"genre_ids\":[28,12,16],\"title\":\"원피스 : 스탬피드\",\"vote_average\":7.4,\"overview\":\"해적의 해적에 의한 해적을 위한 세계 최고의 축제, 해적 박람회! 축제꾼이라 불리는 박람회의 주최자 '브에나 페스타'에게 초대장을 받은 밀짚모자 일당. 박람회에 들어서니 화려한 파빌리온이 즐비해있고, 최악의 세대를 비롯한 많은 해적들이 몰려들어 흥을 돋우고 있었다. 박람회의 빅 이벤트는 해적왕 로저가 남긴 보물 찾기! 보물을 손에 넣고 이름을 날리고 싶은 해적들의 보물 쟁탈전이 시작된다!\",\"release_date\":\"2019-08-09\"},{\"popularity\":149.472,\"vote_count\":662,\"video\":false,\"poster_path\":\"\\/avT0fOGqsu5ctQVhWv3FvWwzxgV.jpg\",\"id\":453405,\"adult\":false,\"backdrop_path\":\"\\/c3F4P2oauA7IQmy4hM0OmRt2W7d.jpg\",\"original_language\":\"en\",\"original_title\":\"Gemini Man\",\"genre_ids\":[28,53],\"title\":\"제미니 맨\",\"vote_average\":5.7,\"overview\":\"최강의 요원 헨리(윌 스미스)는 자신과 완벽하게 닮은 의문의 요원(윌 스미스)에게 맹렬한 추격을 당한다. 한편 헨리와 이제 막 동료가 된 대니(메리 엘리자베스 윈스티드), 헨리의 오랜 동료 배런(베네딕트 웡)은 의문의 요원에게 이상한 낌새를 느끼고 정체를 파헤치기 시작하고, 그가 헨리의 DNA를 추출해 탄생한 ‘제미니 프로젝트’ 요원임을 알게 된다. 헨리의 전성기와 너무나 완벽하게 닮은 한 사람을 만나 충격에 빠지는 헨리와 동료들. 그들은 ‘제미니 프로젝트’를 파괴하기 위한 작전을 시작하는데…\",\"release_date\":\"2019-10-02\"},{\"popularity\":179.849,\"vote_count\":638,\"video\":false,\"poster_path\":\"\\/fxMT7ex1n89UJIPWEO8wtLVbFfw.jpg\",\"id\":423204,\"adult\":false,\"backdrop_path\":\"\\/k2WyDw2NTUIWnuEs5gT7wgrCQg6.jpg\",\"original_language\":\"en\",\"original_title\":\"Angel Has Fallen\",\"genre_ids\":[28],\"title\":\"엔젤 해즈 폴른\",\"vote_average\":5.8,\"overview\":\"비밀 경호국 최고 요원 ‘배닝’(제라드 버틀러)의 엄호 중 '트럼불' 대통령(모건 프리먼)을 향한 초대형 규모의 드론 테러가 발생한다. 가까스로 대통령을 구하고 유일하게 살아남은 '배닝'은 완벽히 조작된 음모에 의해 대통령 암살사건의 테러범으로 지목되고, 국가 영웅은 한순간에 일급 수배자가 되어 FBI에게 쫓기게 되는데...\",\"release_date\":\"2019-08-21\"},{\"popularity\":122.323,\"vote_count\":108,\"video\":false,\"poster_path\":\"\\/r5WnfZPYAVhBA9FuZGn6THWaGHD.jpg\",\"id\":458897,\"adult\":false,\"backdrop_path\":\"\\/a0xTB1vBxMGt6LGG4N7k1wO9lfL.jpg\",\"original_language\":\"en\",\"original_title\":\"Charlie's Angels\",\"genre_ids\":[28,12,35],\"title\":\"미녀 삼총사\",\"vote_average\":6.2,\"overview\":\"\",\"release_date\":\"2019-11-14\"},{\"popularity\":102.017,\"vote_count\":342,\"video\":false,\"poster_path\":\"\\/ok4jQwrA54NGuw0qyGgVGCVe9H.jpg\",\"id\":359724,\"adult\":false,\"backdrop_path\":\"\\/n3UanIvmnBlH531pykuzNs4LbH6.jpg\",\"original_language\":\"en\",\"original_title\":\"Ford v Ferrari\",\"genre_ids\":[18,36],\"title\":\"포드 V 페라리\",\"vote_average\":8,\"overview\":\"1960년대, 매출 감소에 빠진 ‘포드’는 판매 활로를 찾기 위해 스포츠카 레이스를 장악한 절대적 1위 ‘페라리’와의 인수 합병을 추진한다. 막대한 자금력에도 불구, 계약에 실패하고 엔초 페라리로부터 모욕까지 당한 헨리 포드 2세는 르망 24시간 레이스에서 페라리를 박살 낼 차를 만들 것을 지시한다. 세계 3대 자동차 레이싱 대회이자 ‘지옥의 레이스’로 불리는 르망 24시간 레이스. 출전 경험조차 없는 ‘포드’는 대회 6연패를 차지한 ‘페라리’에 대항하기 위해 르망 레이스 우승자 출신 자동차 디자이너 ‘캐롤 셸비’(맷 데이먼)를 고용하고, 그는 누구와도 타협하지 않지만 열정과 실력만큼은 최고인 레이서 ‘켄 마일스’(크리스찬 베일)를 자신의 파트너로 영입한다. 포드의 경영진은 제 멋대로인 ‘켄 마일스’를 눈엣가시처럼 여기며 자신들의 입맛에 맞춘 레이스를 펼치기를 강요하지만 두 사람은 어떤 간섭에도 굴하지 않고 불가능을 뛰어넘기 위한 질주를 시작하는데…\",\"release_date\":\"2019-10-10\"},{\"popularity\":92.098,\"vote_count\":230,\"video\":false,\"poster_path\":\"\\/1mtsyXMbMdaC5Oc1Jqy8pD0xZLA.jpg\",\"id\":508965,\"adult\":false,\"backdrop_path\":\"\\/mlxKite1x1PgmIhJgAxNS9eHmH8.jpg\",\"original_language\":\"en\",\"original_title\":\"Klaus\",\"genre_ids\":[12,16,35,10751],\"title\":\"클라우스\",\"vote_average\":8.5,\"overview\":\"공기도 인심도 꽁꽁 얼어붙은 마을. 활기 넘치는 젊은 우체부와 세상을 등지고 장난감을 만드는 목수. 작은 장난감 선물로 냉기가 사라질 수 있을까. 전혀 어울리지 않는 둘의 우정이 차디찬 세상에 온기를 불어넣는다. 《슈퍼배드》 작가의 산타 탄생 이야기.\",\"release_date\":\"2019-11-08\"},{\"popularity\":86.526,\"vote_count\":1508,\"video\":false,\"poster_path\":\"\\/ePXuKdXZuJx8hHMNr2yM4jY2L7Z.jpg\",\"id\":559969,\"adult\":false,\"backdrop_path\":\"\\/ijiE9WoGSwSzM16zTxvUneJ8RXc.jpg\",\"original_language\":\"en\",\"original_title\":\"El Camino: A Breaking Bad Movie\",\"genre_ids\":[80,18,53],\"title\":\"브레이킹 배드 무비: 엘 카미노\",\"vote_average\":7,\"overview\":\"도망자로 돌아온 제시 핑크맨. 범죄로부터, 과거로부터, 그는 달아나야만 한다. 《브레이킹 배드》의 제작자 빈스 길리건이 각본과 연출을 맡은 영화. 에런 폴이 출연한다.\",\"release_date\":\"2019-10-11\"},{\"popularity\":68.351,\"vote_count\":938,\"video\":false,\"poster_path\":\"\\/btpvGjqLBHgRnobKGlzbBD4jzmf.jpg\",\"id\":420809,\"adult\":false,\"backdrop_path\":\"\\/skvI4rYFrKXS73BJxWGH54Omlvv.jpg\",\"original_language\":\"en\",\"original_title\":\"Maleficent: Mistress of Evil\",\"genre_ids\":[12,14,10751],\"title\":\"말레피센트 2\",\"vote_average\":7.2,\"overview\":\"강력한 어둠의 요정이자 무어스 숲의 수호자 ‘말레피센트’가 딸처럼 돌봐온 ‘오로라’와 필립 왕자의 결혼 약속으로 인간 왕국의 ‘잉그리스 왕비’와 대립하게 되고 이에 요정과 인간의 연합이 깨지면서 벌어지는 거대한 전쟁을 그린 판타지 블록버스터\",\"release_date\":\"2019-10-16\"},{\"popularity\":85.84,\"id\":522938,\"video\":false,\"vote_count\":558,\"vote_average\":5.9,\"title\":\"람보: 라스트 워\",\"release_date\":\"2019-09-19\",\"original_language\":\"en\",\"original_title\":\"Rambo: Last Blood\",\"genre_ids\":[28,53],\"backdrop_path\":\"\\/spYx9XQFODuqEVoPpvaJI1ksAVt.jpg\",\"adult\":false,\"overview\":\"36년간 수많은 전쟁터의 중심에서 치열하게 싸운 '존 람보'. 지옥 같은 전쟁 트라우마에서 벗어나 평화로운 시간을 보내는 것도 잠시, 딸처럼 여겼던 옆집 소녀가 멕시코 카르텔에게 납치된다. ‘람보’는 자신의 전투 본능과 살인 무기를 총동원해 자비 없이 적들을 처단하기 시작하는데...\",\"poster_path\":\"\\/5f1hwyCxTjOUnrT23n6skqQeUD9.jpg\"},{\"popularity\":84.722,\"id\":567609,\"video\":false,\"vote_count\":356,\"vote_average\":6.9,\"title\":\"레디 오어 낫\",\"release_date\":\"2019-08-21\",\"original_language\":\"en\",\"original_title\":\"Ready or Not\",\"genre_ids\":[27,53,9648,35],\"backdrop_path\":\"\\/j8uPZSPjKYzHlN2B4NhPQVWWZ5x.jpg\",\"adult\":false,\"overview\":\"결혼 첫 날 밤, 시댁의 (이상한) 전통에 따라 살인 숨바꼭질을 하게 된 새 신부의 이야기\",\"poster_path\":\"\\/vOl6shtL0wknjaIs6JdKCpcHvg8.jpg\"},{\"popularity\":60.824,\"vote_count\":1445,\"video\":false,\"poster_path\":\"\\/tcmj4YQ6p79OD8ECpRAbV8Yjk0c.jpg\",\"id\":496243,\"adult\":false,\"backdrop_path\":\"\\/TU9NIjwzjoKPwQHoHshkFcQUCG.jpg\",\"original_language\":\"ko\",\"original_title\":\"기생충\",\"genre_ids\":[35,18,53],\"title\":\"기생충\",\"vote_average\":8.5,\"overview\":\"전원 백수로 살 길 막막하지만 사이는 좋은 기택(송강호) 가족. 장남 기우(최우식)에게 명문대생 친구가 연결시켜 준 고액 과외 자리는 모처럼 싹튼 고정수입의 희망이다. 온 가족의 도움과 기대 속에 박 사장(이선균) 집으로 향하는 기우. 글로벌 IT기업의 CEO인 박 사장의 저택에 도착하자 젊고 아름다운 사모님 연교(조여정)와 가정부 충숙(장혜진)이 기우를 맞이한다. 큰 문제 없이 박 사장의 딸 다혜(정지소)의 과외를 시작한 기우. 그러나 이렇게 시작된 두 가족의 만남 뒤로, 걷잡을 수 없는 사건이 기다리고 있는데...\",\"release_date\":\"2019-05-30\"},{\"popularity\":46.548,\"vote_count\":79,\"video\":false,\"poster_path\":\"\\/oyKnosHXQ7kkhlGwqsWOvn4RgKR.jpg\",\"id\":513409,\"adult\":false,\"backdrop_path\":\"\\/n0Yk3pEix6EvMfcFxpTQKMUtl6V.jpg\",\"original_language\":\"en\",\"original_title\":\"Earthquake Bird\",\"genre_ids\":[18,9648,53,10749],\"title\":\"지진새\",\"vote_average\":5.6,\"overview\":\"1980년대 도쿄, 짙은 그늘을 품은 이국의 여인. 어느 날, 그녀의 일본인 연인을 유혹하던 친구가 실종된다. 어긋난 사랑이, 치명적인 삼각관계가, 끝내 죽음을 부른 걸까.\",\"release_date\":\"2019-11-01\"},{\"popularity\":55.254,\"vote_count\":338,\"video\":false,\"poster_path\":\"\\/xvYCZ740XvngXK0FNeSNVTJJJ5v.jpg\",\"id\":499701,\"adult\":false,\"backdrop_path\":\"\\/61sbyO47yIpsMFyLhY1MWcqjg1Q.jpg\",\"original_language\":\"en\",\"original_title\":\"Dora and the Lost City of Gold\",\"genre_ids\":[12,35,10751],\"title\":\"도라와 잃어버린 황금의 도시\",\"vote_average\":6.4,\"overview\":\"10대 탐험가 도라가 친구들을 이끌고 모험에 나선다. 도라는 부모님을 구하고, 잃어버린 황금의 도시에 얽힌 미스테리를 풀어야 한다.\",\"release_date\":\"2019-08-08\"},{\"popularity\":48.993,\"vote_count\":14,\"video\":false,\"poster_path\":\"\\/tC3oqkvF6E1RzaTBMb7IivcLx96.jpg\",\"id\":501907,\"adult\":false,\"backdrop_path\":\"\\/wfPR0NQsM4RkLPpWLCbuyNgKC3k.jpg\",\"original_language\":\"en\",\"original_title\":\"A Beautiful Day in the Neighborhood\",\"genre_ids\":[18],\"title\":\"어 뷰티풀 데이 인 더 네이버후드\",\"vote_average\":7,\"overview\":\"\",\"release_date\":\"2019-11-22\"},{\"popularity\":60.73,\"vote_count\":495,\"video\":false,\"poster_path\":\"\\/zcXjQEHfwuHrZKzpbrCPGnpPNtk.jpg\",\"id\":501170,\"adult\":false,\"backdrop_path\":\"\\/1nm0sk8UUx9jHCTHuMKe2jkt4Pn.jpg\",\"original_language\":\"en\",\"original_title\":\"Doctor Sleep\",\"genre_ids\":[27],\"title\":\"닥터 슬립\",\"vote_average\":7.1,\"overview\":\"어린시절 아버지가 남긴 트라우마에서 벗어나지 못한 대니는 자신이 가진 샤이닝 능력으로 죽음을 앞둔 이들을 돕는 닥터 슬립으로 불리며 살고 있다. 우연히 누구보다 강력한 샤이닝 능력을 지닌 12살 소녀 아브라 스톤을 만나게 되면서, 샤이닝 능력자들을 먹고 영원한 생명을 이어나가는 트루 낫이라는 비밀조직과 맞서게 되는데…\",\"release_date\":\"2019-10-30\"},{\"popularity\":55.08,\"vote_count\":190,\"video\":false,\"poster_path\":\"\\/Ch4DTlESeylOs7VaTI5YWI2XN9.jpg\",\"id\":398978,\"adult\":false,\"backdrop_path\":\"\\/aZ1ZqJ4uO1RK5gU5jRsO4qG7rJo.jpg\",\"original_language\":\"en\",\"original_title\":\"The Irishman\",\"genre_ids\":[80,36],\"title\":\"아이리시맨\",\"vote_average\":8.5,\"overview\":\"20세기 미국 정치 이면에 존재했던 악명높은 인물들과 연루된 한 남자의 시선으로 장기 미제 사건의 대명사 ‘지미 호파 실종 사건’을 그려낸다. 지미 호파는 1950-60년대 미국 정계를 좌지우지했던 거대노동조합의 우두머리로 1975년 실종됐지만, 아직까지 그 사건의 실체가 밝혀지지 않았다. 지미 호파 실종 사건은 미국 역사상 가장 유명한 장기 미제 사건 중 하나이다. 영화는 여러 악명높은 범죄조직 및 인사들과 연루돼 지미 호파 실종의 용의자로 지목되었던 프랭크 시런의 시선을 통해, 미국 근대사의 한 페이지를 장식한 지미 호파의 장대한 이야기를 보여준다.\",\"release_date\":\"2019-11-01\"}],\"page\":1,\"total_results\":1480,\"dates\":{\"maximum\":\"2019-11-23\",\"minimum\":\"2019-10-06\"},\"total_pages\":74}"